How to make EICs/TICs/BPIs
…
EIC_intervals

## # A tibble: 1 x 3
##      mz mz_lower mz_upper
##   <dbl>    <dbl>    <dbl>
## 1   279  278.721  279.279

Now we get the EIC data and plot it.

EIC_data <- get_EICs(raw_tbl$raw[[1]], EIC_intervals) %>% extract2(1)
    
EIC_data

## # A tibble: 1,066 x 3
##     scan  scan_rt intensity
##    <int>    <dbl>     <dbl>
## 1      1 41.68963      2598
## 2      2 41.71572      2515
## 3      3 41.74180      2452
## 4      4 41.76788      2525
## 5      5 41.79397      2717
## 6      6 41.82005      2805
## 7      7 41.84613      2745
## 8      8 41.87222      2644
## 9      9 41.89830      2727
## 10    10 41.92438      2972
## # ... with 1,056 more rows
…
## # A tibble: 6 x 5
##       file polarity           raw           ranges        EIC
##     <fctr>    <chr>        <list>           <list>     <list>
## 1 ko15.CDF  unknown <S4: xcmsRaw> <tibble [3 x 3]> <list [3]>
## 2 ko16.CDF  unknown <S4: xcmsRaw> <tibble [3 x 3]> <list [3]>
## 3 ko18.CDF  unknown <S4: xcmsRaw> <tibble [3 x 3]> <list [3]>
## 4 ko19.CDF  unknown <S4: xcmsRaw> <tibble [3 x 3]> <list [3]>
## 5 ko21.CDF  unknown <S4: xcmsRaw> <tibble [3 x 3]> <list [3]>
## 6 ko22.CDF  unknown <S4: xcmsRaw> <tibble [3 x 3]> <list [3]>

# Inside each of the EIC lists we have a table for each EIC slice:
range_tbls_and_files$EIC[[1]]

## [[1]]
## # A tibble: 1,157 x 3
##     scan  scan_rt intensity
##    <int>    <dbl>     <dbl>
## 1      1 41.68963       620
## 2      2 41.71572       439
## 3      3 41.74180       459
## 4      4 41.76788       446
## 5      5 41.79397       413
## 6      6 41.82005       428
## 7      7 41.84613       559
## 8      8 41.87222       693
## 9      9 41.89830       751
## 10    10 41.92438       684
## # ... with 1,147 more rows
## 
## [[2]]
## # A tibble: 1,066 x 3
##     scan  scan_rt intensity
##    <int>    <dbl>     <dbl>
## 1      1 41.68963      2598
## 2      2 41.71572      2515
## 3      3 41.74180      2452
## 4      4 41.76788      2525
## 5      5 41.79397      2717
## 6      6 41.82005      2805
## 7      7 41.84613      2745
## 8      8 41.87222      2644
## 9      9 41.89830      2727
## 10    10 41.92438      2972
## # ... with 1,056 more rows
## 
## [[3]]
## # A tibble: 1,129 x 3
##     scan  scan_rt intensity
##    <int>    <dbl>     <dbl>
## 1      1 41.68963      1356
## 2      2 41.71572      1473
## 3      3 41.74180       826
## 4      4 41.76788       751
## 5      5 41.79397      1131
## 6      6 41.82005       941
## 7      7 41.84613       918
## 8      8 41.87222       563
## 9      9 41.89830       592
## 10    10 41.92438       605
## # ... with 1,119 more rows

So now we need to wrangle the data a bit to be able to unwrap those nested tables. We go into the EIC lists, merge the lists while we add a row to show which m/z slice each belongs to. While we are at it we change the new mz column to a factor.

range_tbls_and_files %<>% mutate(EIC = map2(EIC,ranges, ~ bind_rows(.x %>% setNames(.y$mz), .id = "mz") %>% 
                                                          mutate(mz = mz %>% as.numeric %>% as.factor) 
                                            )
                                 )

range_tbls_and_files$EIC[[1]]

## # A tibble: 3,352 x 4
##        mz  scan  scan_rt intensity
##    <fctr> <int>    <dbl>     <dbl>
## 1   508.1     1 41.68963       620
## 2   508.1     2 41.71572       439
## 3   508.1     3 41.74180       459
## 4   508.1     4 41.76788       446
## 5   508.1     5 41.79397       413
## 6   508.1     6 41.82005       428
## 7   508.1     7 41.84613       559
## 8   508.1     8 41.87222       693
## 9   508.1     9 41.89830       751
## 10  508.1    10 41.92438       684
## # ... with 3,342 more rows
…
